%YAML 1.1
%TAG !u! tag:unity3d.com,2011:
--- !u!1001 &6509587204389776932
PrefabInstance:
  m_ObjectHideFlags: 0
  serializedVersion: 2
  m_Modification:
    m_TransformParent: {fileID: 0}
    m_Modifications:
    - target: {fileID: 8855148737219449510, guid: dc5ce2c4fce4dda4296497ef496ad0a9, type: 3}
      propertyPath: m_Name
      value: Item
      objectReference: {fileID: 0}
    - target: {fileID: 8855148737219449510, guid: dc5ce2c4fce4dda4296497ef496ad0a9, type: 3}
      propertyPath: m_TagString
      value: 1
      objectReference: {fileID: 0}
    - target: {fileID: 8855148737219449512, guid: dc5ce2c4fce4dda4296497ef496ad0a9, type: 3}
      propertyPath: N_image
      value: 1
      objectReference: {fileID: 0}
    - target: {fileID: 8855148737219449512, guid: dc5ce2c4fce4dda4296497ef496ad0a9, type: 3}
      propertyPath: interfaz
      value: 
      objectReference: {fileID: 0}
    - target: {fileID: 8855148737219449513, guid: dc5ce2c4fce4dda4296497ef496ad0a9, type: 3}
      propertyPath: m_Pivot.x
      value: 0.5
      objectReference: {fileID: 0}
    - target: {fileID: 8855148737219449513, guid: dc5ce2c4fce4dda4296497ef496ad0a9, type: 3}
      propertyPath: m_Pivot.y
      value: 0.5
      objectReference: {fileID: 0}
    - target: {fileID: 8855148737219449513, guid: dc5ce2c4fce4dda4296497ef496ad0a9, type: 3}
      propertyPath: m_RootOrder
      value: 0
      objectReference: {fileID: 0}
    - target: {fileID: 8855148737219449513, guid: dc5ce2c4fce4dda4296497ef496ad0a9, type: 3}
      propertyPath: m_AnchorMax.x
      value: 0.5
      objectReference: {fileID: 0}
    - target: {fileID: 8855148737219449513, guid: dc5ce2c4fce4dda4296497ef496ad0a9, type: 3}
      propertyPath: m_AnchorMax.y
      value: 0.5
      objectReference: {fileID: 0}
    - target: {fileID: 8855148737219449513, guid: dc5ce2c4fce4dda4296497ef496ad0a9, type: 3}
      propertyPath: m_AnchorMin.x
      value: 0.5
      objectReference: {fileID: 0}
    - target: {fileID: 8855148737219449513, guid: dc5ce2c4fce4dda4296497ef496ad0a9, type: 3}
      propertyPath: m_AnchorMin.y
      value: 0.5
      objectReference: {fileID: 0}
    - target: {fileID: 8855148737219449513, guid: dc5ce2c4fce4dda4296497ef496ad0a9, type: 3}
      propertyPath: m_SizeDelta.x
      value: 100
      objectReference: {fileID: 0}
    - target: {fileID: 8855148737219449513, guid: dc5ce2c4fce4dda4296497ef496ad0a9, type: 3}
      propertyPath: m_SizeDelta.y
      value: 100
      objectReference: {fileID: 0}
    - target: {fileID: 8855148737219449513, guid: dc5ce2c4fce4dda4296497ef496ad0a9, type: 3}
      propertyPath: m_LocalPosition.x
      value: 0
      objectReference: {fileID: 0}
    - target: {fileID: 8855148737219449513, guid: dc5ce2c4fce4dda4296497ef496ad0a9, type: 3}
      propertyPath: m_LocalPosition.y
      value: 0
      objectReference: {fileID: 0}
    - target: {fileID: 8855148737219449513, guid: dc5ce2c4fce4dda4296497ef496ad0a9, type: 3}
      propertyPath: m_LocalPosition.z
      value: 0
      objectReference: {fileID: 0}
    - target: {fileID: 8855148737219449513, guid: dc5ce2c4fce4dda4296497ef496ad0a9, type: 3}
      propertyPath: m_LocalRotation.w
      value: 1
      objectReference: {fileID: 0}
    - target: {fileID: 8855148737219449513, guid: dc5ce2c4fce4dda4296497ef496ad0a9, type: 3}
      propertyPath: m_LocalRotation.x
      value: -0
      objectReference: {fileID: 0}
    - target: {fileID: 8855148737219449513, guid: dc5ce2c4fce4dda4296497ef496ad0a9, type: 3}
      propertyPath: m_LocalRotation.y
      value: -0
      objectReference: {fileID: 0}
    - target: {fileID: 8855148737219449513, guid: dc5ce2c4fce4dda4296497ef496ad0a9, type: 3}
      propertyPath: m_LocalRotation.z
      value: -0
      objectReference: {fileID: 0}
    - target: {fileID: 8855148737219449513, guid: dc5ce2c4fce4dda4296497ef496ad0a9, type: 3}
      propertyPath: m_AnchoredPosition.x
      value: 315
      objectReference: {fileID: 0}
    - target: {fileID: 8855148737219449513, guid: dc5ce2c4fce4dda4296497ef496ad0a9, type: 3}
      propertyPath: m_AnchoredPosition.y
      value: 239
      objectReference: {fileID: 0}
    - target: {fileID: 8855148737219449513, guid: dc5ce2c4fce4dda4296497ef496ad0a9, type: 3}
      propertyPath: m_LocalEulerAnglesHint.x
      value: 0
      objectReference: {fileID: 0}
    - target: {fileID: 8855148737219449513, guid: dc5ce2c4fce4dda4296497ef496ad0a9, type: 3}
      propertyPath: m_LocalEulerAnglesHint.y
      value: 0
      objectReference: {fileID: 0}
    - target: {fileID: 8855148737219449513, guid: dc5ce2c4fce4dda4296497ef496ad0a9, type: 3}
      propertyPath: m_LocalEulerAnglesHint.z
      value: 0
      objectReference: {fileID: 0}
    - target: {fileID: 8855148737219449515, guid: dc5ce2c4fce4dda4296497ef496ad0a9, type: 3}
      propertyPath: m_Sprite
      value: 
      objectReference: {fileID: 21300000, guid: a66dbd70d62688a4283dced06f478d7a, type: 3}
    - target: {fileID: 8855148737219449515, guid: dc5ce2c4fce4dda4296497ef496ad0a9, type: 3}
      propertyPath: m_Color.a
      value: 1
      objectReference: {fileID: 0}
    - target: {fileID: 8855148737219449515, guid: dc5ce2c4fce4dda4296497ef496ad0a9, type: 3}
      propertyPath: m_Color.b
      value: 0.39430267
      objectReference: {fileID: 0}
    - target: {fileID: 8855148737219449515, guid: dc5ce2c4fce4dda4296497ef496ad0a9, type: 3}
      propertyPath: m_Color.g
      value: 0.6886792
      objectReference: {fileID: 0}
    - target: {fileID: 8855148737219449515, guid: dc5ce2c4fce4dda4296497ef496ad0a9, type: 3}
      propertyPath: m_Color.r
      value: 0
      objectReference: {fileID: 0}
    m_RemovedComponents: []
  m_SourcePrefab: {fileID: 100100000, guid: dc5ce2c4fce4dda4296497ef496ad0a9, type: 3}
